{
    "current_page": 1,
    "data": [
        {
            "id": 1,
            "price": 1000,
            "user_id": 1,
            "category_id": 1,
            "title": "First",
            "author": "Picasso",
            "slug": "first",
            "description": "Lorem ipsum",
            "is_ai_safe": true,
            "visibility_level": 0,
            "width": 100,
            "height": 200,
            "weight": 0.4,
            "status": "Approved",
            "deleted_at": null,
            "created_at": "2016-10-20T11:05:00.000000Z",
            "updated_at": "2016-10-20T11:05:00.000000Z",
            "tags": [
                "First",
                "Picasso",
                "Some",
                "Tags"
            ]
        },
        {
            "id": 2,
            "price": 900,
            "user_id": 2,
            "category_id": 3,
            "title": "Second",
            "author": "Shishkin",
            "slug": "second",
            "description": "Lorem ipsum",
            "is_ai_safe": true,
            "visibility_level": 1,
            "width": 100,
            "height": 200,
            "weight": 0.4,
            "status": "Rejected",
            "deleted_at": null,
            "created_at": "2016-10-20T11:05:00.000000Z",
            "updated_at": "2016-10-20T11:05:00.000000Z",
            "tags": [
                "Second",
                "Shishkin",
                "Some",
                "Tags"
            ]
        },
        {
            "id": 3,
            "price": 800,
            "user_id": 1,
            "category_id": 4,
            "title": "Third",
            "author": "Vrubel",
            "slug": "third",
            "description": "Lorem ipsum",
            "is_ai_safe": false,
            "visibility_level": 2,
            "width": 100,
            "height": 200,
            "weight": 0.4,
            "status": "Pending",
            "deleted_at": null,
            "created_at": "2016-10-20T11:05:00.000000Z",
            "updated_at": "2016-10-20T11:05:00.000000Z",
            "tags": [
                "Third",
                "Vrubel",
                "Some",
                "Tags"
            ]
        },
        {
            "id": 4,
            "price": 700,
            "user_id": 2,
            "category_id": 1,
            "title": "Fourth",
            "author": "Aivazovkiy",
            "slug": "fourth",
            "description": "Lorem ipsum",
            "is_ai_safe": false,
            "visibility_level": 3,
            "width": 100,
            "height": 200,
            "weight": 0.4,
            "status": "Approved",
            "deleted_at": null,
            "created_at": "2016-10-20T11:05:00.000000Z",
            "updated_at": "2016-10-20T11:05:00.000000Z",
            "tags": [
                "Fourth",
                "Aivazovkiy",
                "Some",
                "Tags"
            ]
        },
        {
            "id": 5,
            "price": 600,
            "user_id": 1,
            "category_id": 3,
            "title": "Fifth",
            "author": "Vasnetsov",
            "slug": "fifth",
            "description": "Lorem ipsum",
            "is_ai_safe": true,
            "visibility_level": 0,
            "width": 100,
            "height": 200,
            "weight": 0.4,
            "status": "Rejected",
            "deleted_at": null,
            "created_at": "2016-10-20T11:05:00.000000Z",
            "updated_at": "2016-10-20T11:05:00.000000Z",
            "tags": [
                "Fifth",
                "Vasnetsov",
                "Some",
                "Tags"
            ]
        },
        {
            "id": 6,
            "price": 500,
            "user_id": 2,
            "category_id": 4,
            "title": "Sixth",
            "author": "Picasso",
            "slug": "sixth",
            "description": "Lorem ipsum",
            "is_ai_safe": true,
            "visibility_level": 1,
            "width": 100,
            "height": 200,
            "weight": 0.4,
            "status": "Pending",
            "deleted_at": null,
            "created_at": "2016-10-20T11:05:00.000000Z",
            "updated_at": "2016-10-20T11:05:00.000000Z",
            "tags": [
                "Sixth",
                "Picasso",
                "Some",
                "Tags"
            ]
        },
        {
            "id": 7,
            "price": 400,
            "user_id": 1,
            "category_id": 1,
            "title": "Seventh",
            "author": "Shishkin",
            "slug": "seventh",
            "description": "Lorem ipsum",
            "is_ai_safe": false,
            "visibility_level": 2,
            "width": 100,
            "height": 200,
            "weight": 0.4,
            "status": "Approved",
            "deleted_at": null,
            "created_at": "2016-10-20T11:05:00.000000Z",
            "updated_at": "2016-10-20T11:05:00.000000Z",
            "tags": [
                "Seventh",
                "Shishkin",
                "Some",
                "Tags"
            ]
        },
        {
            "id": 8,
            "price": 300,
            "user_id": 2,
            "category_id": 4,
            "title": "Eighth",
            "author": "Vrubel",
            "slug": "eighth",
            "description": "Lorem ipsum",
            "is_ai_safe": false,
            "visibility_level": 3,
            "width": 100,
            "height": 200,
            "weight": 0.4,
            "status": "Rejected",
            "deleted_at": null,
            "created_at": "2016-10-20T11:05:00.000000Z",
            "updated_at": "2016-10-20T11:05:00.000000Z",
            "tags": [
                "Eighth",
                "Vrubel",
                "Some",
                "Tags"
            ]
        },
        {
            "id": 9,
            "price": 200,
            "user_id": 1,
            "category_id": 4,
            "title": "Ninth",
            "author": "Aivazovkiy",
            "slug": "ninth",
            "description": "Lorem ipsum",
            "is_ai_safe": true,
            "visibility_level": 0,
            "width": 100,
            "height": 200,
            "weight": 0.4,
            "status": "Pending",
            "deleted_at": null,
            "created_at": "2016-10-20T11:05:00.000000Z",
            "updated_at": "2016-10-20T11:05:00.000000Z",
            "tags": [
                "Ninth",
                "Aivazovkiy",
                "Some",
                "Tags"
            ]
        },
        {
            "id": 10,
            "price": 100,
            "user_id": 2,
            "category_id": 1,
            "title": "Tenth",
            "author": "Vasnetsov",
            "slug": "tenth",
            "description": "Lorem ipsum",
            "is_ai_safe": true,
            "visibility_level": 1,
            "width": 100,
            "height": 200,
            "weight": 0.4,
            "status": "Approved",
            "deleted_at": null,
            "created_at": "2016-10-20T11:05:00.000000Z",
            "updated_at": "2016-10-20T11:05:00.000000Z",
            "tags": [
                "Tenth",
                "Vasnetsov",
                "Some",
                "Tags"
            ]
        }
    ],
    "first_page_url": "http:\/\/localhost\/products?page=1",
    "from": 1,
    "last_page": 2,
    "last_page_url": "http:\/\/localhost\/products?page=2",
    "links": [
        {
            "url": null,
            "label": "&laquo; Previous",
            "active": false
        },
        {
            "url": "http:\/\/localhost\/products?page=1",
            "label": "1",
            "active": true
        },
        {
            "url": "http:\/\/localhost\/products?page=2",
            "label": "2",
            "active": false
        },
        {
            "url": "http:\/\/localhost\/products?page=2",
            "label": "Next &raquo;",
            "active": false
        }
    ],
    "next_page_url": "http:\/\/localhost\/products?page=2",
    "path": "http:\/\/localhost\/products",
    "per_page": 10,
    "prev_page_url": null,
    "to": 10,
    "total": 11
}